0,16,2;1573150;758604;7668048;11239424
0,16,4;1573150;833247;11211421;11239424
0,16,6;1573150;836847;11433147;11239424
0,16,8;1573150;836966;11131235;11239424
0,16,10;1573150;836968;11121380;11239424
0,16,12;1573150;836968;11511544;11239424
0,16,14;1573150;836962;11405898;11239424
0,16,16;1573150;836957;11451486;11239424
0,16,18;1573150;836957;10761377;11239424
0,16,20;1573150;836957;10961508;11239424
0,16,22;1573150;836957;12161551;11239424
0,16,24;1573150;836957;12201574;11239424
0,16,26;1573150;836957;11971460;11239424
0,16,28;1573150;836957;13211810;11239424
0,16,30;1573150;836957;12243713;11239424
0,16,32;1573150;836957;12411667;11239424
0,17,2;1573150;739224;4707836;11239424
0,17,4;1573150;806596;11771625;11239424
0,17,6;1573150;811869;11721492;11239424
0,17,8;1573150;811832;11251392;11239424
0,17,10;1573150;811806;11359457;11239424
0,17,12;1573150;811804;11651468;11239424
0,17,14;1573150;811808;11890222;11239424
0,17,16;1573150;811808;11349847;11239424
0,17,18;1573150;811810;10581433;11239424
0,17,20;1573150;811810;10731364;11239424
0,17,22;1573150;811810;11378764;11239424
0,17,24;1573150;811810;10681268;11239424
0,17,26;1573150;811810;10691242;11239424
0,17,28;1573150;811810;11531557;11239424
0,17,30;1573150;811810;10911399;11239424
0,17,32;1573150;811810;11041394;11239424
0,18,2;1573150;734938;3590562;11239424
0,18,4;1573150;787940;10501324;11239424
0,18,6;1573150;793760;11731589;11239424
0,18,8;1573150;794134;10430827;11239424
0,18,10;1573150;794129;10571339;11239424
0,18,12;1573150;794120;11021495;11239424
0,18,14;1573150;794123;10391387;11239424
0,18,16;1573150;794124;10495074;11239424
0,18,18;1573150;794124;10651325;11239424
0,18,20;1573150;794124;10646948;11239424
0,18,22;1573150;794124;10551346;11239424
0,18,24;1573150;794124;10831807;11239424
0,18,26;1573150;794124;10461201;11239424
0,18,28;1573150;794124;11081516;11239424
0,18,30;1573150;794124;10826769;11239424
0,18,32;1573150;794124;10701775;11239424
0,19,2;1573150;734938;3520390;11239424
0,19,4;1573150;774807;9841075;11239424
0,19,6;1573150;780950;10281302;11239424
0,19,8;1573150;781107;10351298;11239424
0,19,10;1573150;781095;10311340;11239424
0,19,12;1573150;781114;10731479;11239424
0,19,14;1573150;781110;10241291;11239424
0,19,16;1573150;781110;10351314;11239424
0,19,18;1573150;781113;10181155;11239424
0,19,20;1573150;781113;10381257;11239424
0,19,22;1573150;781113;10481252;11239424
0,19,24;1573150;781113;10877070;11239424
0,19,26;1573150;781113;11070762;11239424
0,19,28;1573150;781113;10661357;11239424
0,19,30;1573150;781113;10778225;11239424
0,19,32;1573150;781113;11347860;11239424
0,20,2;1573150;734938;3460584;11239424
0,20,4;1573150;765360;9181218;11239424
0,20,6;1573150;771693;10361289;11239424
0,20,8;1573150;772152;11136129;11239424
0,20,10;1573150;772173;10527698;11239424
0,20,12;1573150;772169;10621390;11239424
0,20,14;1573150;772170;10821513;11239424
0,20,16;1573150;772166;10331185;11239424
0,20,18;1573150;772167;10641187;11239424
0,20,20;1573150;772167;10941432;11239424
0,20,22;1573150;772167;10371172;11239424
0,20,24;1573150;772167;10697738;11239424
0,20,26;1573150;772167;10725591;11239424
0,20,28;1573150;772167;11188534;11239424
0,20,30;1573150;772167;10171297;11239424
0,20,32;1573150;772167;10531304;11239424
0,21,2;1573150;734938;3750464;11239424
0,21,4;1573150;758702;9704005;11239424
0,21,6;1573150;765108;10871207;11239424
0,21,8;1573150;765469;10621231;11239424
0,21,10;1573150;765569;11378021;11239424
0,21,12;1573150;765583;10546517;11239424
0,21,14;1573150;765581;11661377;11239424
0,21,16;1573150;765583;10761463;11239424
0,21,18;1573150;765583;10491415;11239424
0,21,20;1573150;765583;10511380;11239424
0,21,22;1573150;765583;10671384;11239424
0,21,24;1573150;765583;10531345;11239424
0,21,26;1573150;765583;10571331;11239424
0,21,28;1573150;765583;10691222;11239424
0,21,30;1573150;765583;10871256;11239424
0,21,32;1573150;765583;10691226;11239424
0,22,2;1573150;734938;3460423;11239424
0,22,4;1573150;753458;8181022;11239424
0,22,6;1573150;761178;11251544;11239424
0,22,8;1573150;761303;11301422;11239424
0,22,10;1573150;761347;11381289;11239424
0,22,12;1573150;761345;10961355;11239424
0,22,14;1573150;761341;11501451;11239424
0,22,16;1573150;761343;11245442;11239424
0,22,18;1573150;761343;11240186;11239424
0,22,20;1573150;761343;11111479;11239424
0,22,22;1573150;761343;11411552;11239424
0,22,24;1573150;761343;11031498;11239424
0,22,26;1573150;761343;11905214;11239424
0,22,28;1573150;761343;11131235;11239424
0,22,30;1573150;761343;11101411;11239424
0,22,32;1573150;761343;11384915;11239424
0,23,2;1573150;734938;3560558;11239424
0,23,4;1573150;749022;8399285;11239424
0,23,6;1573150;758479;12802138;11239424
0,23,8;1573150;758460;12701761;11239424
0,23,10;1573150;758532;12671546;11239424
0,23,12;1573150;758544;12886603;11239424
0,23,14;1573150;758544;12861716;11239424
0,23,16;1573150;758544;12720407;11239424
0,23,18;1573150;758544;12909726;11239424
0,23,20;1573150;758544;12701498;11239424
0,23,22;1573150;758544;12721557;11239424
0,23,24;1573150;758544;13091662;11239424
0,23,26;1573150;758544;12771612;11239424
0,23,28;1573150;758544;13841606;11239424
0,23,30;1573150;758544;12711525;11239424
0,23,32;1573150;758544;12521558;11239424
0,24,2;1573150;734938;3590591;11239424
0,24,4;1573150;749022;8247994;11239424
0,24,6;1573150;757076;15168553;11239424
0,24,8;1573150;757190;-130054063148499398;11239424
0,24,10;1573150;757215;15341923;11239424
0,24,12;1573150;757230;15174671;11239424
0,24,14;1573150;757221;15001921;11239424
0,24,16;1573150;757221;14951895;11239424
0,24,18;1573150;757220;15051821;11239424
0,24,20;1573150;757220;15094686;11239424
0,24,22;1573150;757220;14844521;11239424
0,24,24;1573150;757220;15611951;11239424
0,24,26;1573150;757220;14911855;11239424
0,24,28;1573150;757220;15141912;11239424
0,24,30;1573150;757220;15222045;11239424
0,24,32;1573150;757220;15421827;11239424
0,25,2;1573150;734938;3530616;11239424
0,25,4;1573150;749022;8440976;15646720
0,25,6;1573150;755763;18692336;11239424
0,25,8;1573150;755861;17352278;11239424
0,25,10;1573150;755877;18762278;11239424
0,25,12;1573150;755879;17862270;11239424
0,25,14;1573150;755879;18577964;11239424
0,25,16;1573150;755879;18542220;11239424
0,25,18;1573150;755879;17662283;11239424
0,25,20;1573150;755879;17342090;11239424
0,25,22;1573150;755879;17722243;11239424
0,25,24;1573150;755879;17772154;11239424
0,25,26;1573150;755879;18352905;11239424
0,25,28;1573150;755879;18032252;11239424
0,25,30;1573150;755879;17962282;11239424
0,25,32;1573150;755879;22652691;11239424
0,26,2;1573150;734938;3530595;11239424
0,26,4;1573150;749022;9951353;11239424
0,26,6;1573150;755763;20812643;11239424
0,26,8;1573150;755861;22082957;11239424
0,26,10;1573150;755877;20752470;11239424
0,26,12;1573150;755879;18152340;11239424
0,26,14;1573150;755879;18842357;11239424
0,26,16;1573150;755879;18758073;11239424
0,26,18;1573150;755879;18052475;11239424
0,26,20;1573150;755879;18172292;11239424
0,26,22;1573150;755879;17732406;11239424
0,26,24;1573150;755879;17912116;11239424
0,26,26;1573150;755879;18245482;11239424
0,26,28;1573150;755879;17742117;11239424
0,26,30;1573150;755879;18722283;11239424
0,26,32;1573150;755879;18151157;11239424
0,27,2;1573150;734938;3798269;11239424
0,27,4;1573150;749022;7922969;11239424
0,27,6;1573150;755763;18062294;11239424
0,27,8;1573150;755861;21257991;11239424
0,27,10;1573150;755877;20557665;11239424
0,27,12;1573150;755879;18762225;11239424
0,27,14;1573150;755879;20632802;11239424
0,27,16;1573150;755879;22572816;11239424
0,27,18;1573150;755879;23182948;11239424
0,27,20;1573150;755879;24293130;11239424
0,27,22;1573150;755879;19032358;11239424
0,27,24;1573150;755879;19302381;11239424
0,27,26;1573150;755879;17722152;11239424
0,27,28;1573150;755879;18292424;11239424
0,27,30;1573150;755879;17972371;11239424
0,27,32;1573150;755879;17772166;11239424
0,28,2;1573150;734938;3520563;11239424
0,28,4;1573150;749022;8581081;11239424
0,28,6;1573150;755763;17072121;11239424
0,28,8;1573150;755861;-130054064347110668;11239424
0,28,10;1573150;755877;17932166;11239424
0,28,12;1573150;755879;17822263;11239424
0,28,14;1573150;755879;17272202;11239424
0,28,16;1573150;755879;17902265;11239424
0,28,18;1573150;755879;17942251;11239424
0,28,20;1573150;755879;18398398;11239424
0,28,22;1573150;755879;17392268;11239424
0,28,24;1573150;755879;17922246;11239424
0,28,26;1573150;755879;17862212;11239424
0,28,28;1573150;755879;18323291;11239424
0,28,30;1573150;755879;17632229;11239424
0,28,32;1573150;755879;18082168;11239424
0,29,2;1573150;734938;3790480;11239424
0,29,4;1573150;749022;8881264;11239424
0,29,6;1573150;755763;22282808;11239424
0,29,8;1573150;755861;21832767;11239424
0,29,10;1573150;755877;17962277;11239424
0,29,12;1573150;755879;17992208;11239424
0,29,14;1573150;755879;17982279;11239424
0,29,16;1573150;755879;17872384;11239424
0,29,18;1573150;755879;18282331;11239424
0,29,20;1573150;755879;17922262;11239424
0,29,22;1573150;755879;17722296;11239424
0,29,24;1573150;755879;17792259;11239424
0,29,26;1573150;755879;18362304;11239424
0,29,28;1573150;755879;18932285;11239424
0,29,30;1573150;755879;17992204;11239424
0,29,32;1573150;755879;17822295;11239424
5,16,2;1573150;896020;39184376;11239424
5,16,4;1573150;896056;37274632;11239424
5,16,6;1573150;896056;37404821;11239424
5,16,8;1573150;896056;36834845;11239424
5,16,10;1573150;896056;37884698;11239424
5,16,12;1573150;896056;37774872;11239424
5,16,14;1573150;896056;38724767;11239424
5,16,16;1573150;896056;36854830;11239424
5,16,18;1573150;896056;38407880;11239424
5,16,20;1573150;896056;36674726;11239424
5,16,22;1573150;896056;40011054;11239424
5,16,24;1573150;896056;37604951;11239424
5,16,26;1573150;896056;36544534;11239424
5,16,28;1573150;896056;39622298;11239424
5,16,30;1573150;896056;38558489;11239424
5,16,32;1573150;896056;36984703;11239424
5,17,2;1573150;889417;37146792;11239424
5,17,4;1573150;889466;38824783;11239424
5,17,6;1573150;889466;38024968;11239424
5,17,8;1573150;889466;37424762;11239424
5,17,10;1573150;889466;37764853;11239424
5,17,12;1573150;889466;36764661;11239424
5,17,14;1573150;889466;36774697;11239424
5,17,16;1573150;889466;37604783;11239424
5,17,18;1573150;889466;37984755;11239424
5,17,20;1573150;889466;41325230;11239424
5,17,22;1573150;889466;40705171;11239424
5,17,24;1573150;889466;38225377;11239424
5,17,26;1573150;889466;37494621;11239424
5,17,28;1573150;889466;38594854;11239424
5,17,30;1573150;889466;38164798;11239424
5,17,32;1573150;889466;37744757;11239424
5,18,2;1573150;884928;38964954;11239424
5,18,4;1573150;885042;38104842;11239424
5,18,6;1573150;885042;38485533;11239424
5,18,8;1573150;885042;37624879;11239424
5,18,10;1573150;885042;38500274;11239424
5,18,12;1573150;885042;37284791;11239424
5,18,14;1573150;885042;40065030;11239424
5,18,16;1573150;885042;37264548;11239424
5,18,18;1573150;885042;38074817;11239424
5,18,20;1573150;885042;38314997;11239424
5,18,22;1573150;885042;37244727;11239424
5,18,24;1573150;885042;37719080;11239424
5,18,26;1573150;885042;40075178;11239424
5,18,28;1573150;885042;37484880;11239424
5,18,30;1573150;885042;37904987;11239424
5,18,32;1573150;885042;39905076;11239424
5,19,2;1573150;882835;40095096;11239424
5,19,4;1573150;882866;38254856;11239424
5,19,6;1573150;882866;39574852;11239424
5,19,8;1573150;882866;38060048;11239424
5,19,10;1573150;882866;37744802;11239424
5,19,12;1573150;882866;40785139;11239424
5,19,14;1573150;882866;39205009;11239424
5,19,16;1573150;882866;39935076;11239424
5,19,18;1573150;882866;38614827;11239424
5,19,20;1573150;882866;40265215;11239424
5,19,22;1573150;882866;39515015;11239424
5,19,24;1573150;882866;39684932;11239424
5,19,26;1573150;882866;41341841;11239424
5,19,28;1573150;882866;37864877;11239424
5,19,30;1573150;882866;39494890;11239424
5,19,32;1573150;882866;39085132;11239424
5,20,2;1573150;884289;38284848;11239424
5,20,4;1573150;884471;39735023;11239424
5,20,6;1573150;884471;39294920;11239424
5,20,8;1573150;884471;38949584;11239424
5,20,10;1573150;884471;40614989;11239424
5,20,12;1573150;884471;40274651;11239424
5,20,14;1573150;884471;41015307;11239424
5,20,16;1573150;884471;40875350;11239424
5,20,18;1573150;884471;43645516;11239424
5,20,20;1573150;884471;41335164;11239424
5,20,22;1573150;884471;41565212;11239424
5,20,24;1573150;884471;39834900;11239424
5,20,26;1573150;884471;39844898;11239424
5,20,28;1573150;884471;40685066;11239424
5,20,30;1573150;884471;40555218;11239424
5,20,32;1573150;884471;39420871;11239424
5,21,2;1573150;887583;40355260;11239424
5,21,4;1573150;887497;40569274;11239424
5,21,6;1573150;887497;41235312;11239424
5,21,8;1573150;887497;40965211;11239424
5,21,10;1573150;887497;40065088;11239424
5,21,12;1573150;887497;39394903;11239424
5,21,14;1573150;887497;41399364;11239424
5,21,16;1573150;887497;40035002;11239424
5,21,18;1573150;887497;40459904;11239424
5,21,20;1573150;887497;40725003;11239424
5,21,22;1573150;887497;40115361;11239424
5,21,24;1573150;887497;41135222;11239424
5,21,26;1573150;887497;41285232;11239424
5,21,28;1573150;887497;40637738;11239424
5,21,30;1573150;887497;40025072;11239424
5,21,32;1573150;887497;40685083;11239424
5,22,2;1573150;891090;41616072;11239424
5,22,4;1573150;891172;40805100;11239424
5,22,6;1573150;891172;43285505;11239424
5,22,8;1573150;891172;43895730;11239424
5,22,10;1573150;891172;42805620;11239424
5,22,12;1573150;891172;43015519;11239424
5,22,14;1573150;891172;42885687;11239424
5,22,16;1573150;891172;43485360;11239424
5,22,18;1573150;891172;43745487;11239424
5,22,20;1573150;891172;43215494;11239424
5,22,22;1573150;891172;42535388;11239424
5,22,24;1573150;891172;44905856;11239424
5,22,26;1573150;891172;42945401;11239424
5,22,28;1573150;891172;42485332;11239424
5,22,30;1573150;891172;41475268;11239424
5,22,32;1573150;891172;40655247;11239424
5,23,2;1573150;889697;43825535;11239424
5,23,4;1573150;889988;45015752;11239424
5,23,6;1573150;889988;45495744;11239424
5,23,8;1573150;889988;44655646;11239424
5,23,10;1573150;889988;45482349;11239424
5,23,12;1573150;889988;42895456;11239424
5,23,14;1573150;889988;43615377;11239424
5,23,16;1573150;889988;44215554;11239424
5,23,18;1573150;889988;42635424;11239424
5,23,20;1573150;889988;43345502;11239424
5,23,22;1573150;889988;42225386;11239424
5,23,24;1573150;889988;42335393;11239424
5,23,26;1573150;889988;43653511;11239424
5,23,28;1573150;889988;45535948;11239424
5,23,30;1573150;889988;41935202;11239424
5,23,32;1573150;889988;43375625;11239424
5,24,2;1573150;889697;42525270;11239424
5,24,4;1573150;889550;42955470;11239424
5,24,6;1573150;889550;43195497;11239424
5,24,8;1573150;889550;42925280;11239424
5,24,10;1573150;889550;42145200;11239424
5,24,12;1573150;889550;44432319;11239424
5,24,14;1573150;889550;43011885;11239424
5,24,16;1573150;889550;-130054071396362739;11239424
5,24,18;1573150;889550;45365838;11239424
5,24,20;1573150;889550;43345399;11239424
5,24,22;1573150;889550;41995415;11239424
5,24,24;1573150;889550;44808801;11239424
5,24,26;1573150;889550;42485394;11239424
5,24,28;1573150;889550;43075445;11239424
5,24,30;1573150;889550;41955342;11239424
5,24,32;1573150;889550;42665568;11239424
5,25,2;1573150;889697;44385643;11239424
5,25,4;1573150;889550;43315346;11239424
5,25,6;1573150;889550;43145482;11239424
5,25,8;1573150;889550;44875704;11239424
5,25,10;1573150;889550;43196900;11239424
5,25,12;1573150;889550;42700065;11239424
5,25,14;1573150;889550;45035757;11239424
5,25,16;1573150;889550;46335779;11239424
5,25,18;1573150;889550;-130054072171347640;11239424
5,25,20;1573150;889550;46116415;11239424
5,25,22;1573150;889550;43235536;11239424
5,25,24;1573150;889550;43125312;11239424
5,25,26;1573150;889550;43535456;11239424
5,25,28;1573150;889550;44025648;11239424
5,25,30;1573150;889550;44166000;11239424
5,25,32;1573150;889550;42905344;11239424
5,26,2;1573150;889697;42595363;11239424
5,26,4;1573150;889550;44517064;11239424
5,26,6;1573150;889550;42555414;11239424
5,26,8;1573150;889550;46593188;11239424
5,26,10;1573150;889550;43279580;11239424
5,26,12;1573150;889550;42715365;11239424
5,26,14;1573150;889550;43795571;11239424
5,26,16;1573150;889550;42665486;11239424
5,26,18;1573150;889550;43295335;11239424
5,26,20;1573150;889550;44705742;11239424
5,26,22;1573150;889550;44755670;11239424
5,26,24;1573150;889550;43025468;11239424
5,26,26;1573150;889550;44705517;11239424
5,26,28;1573150;889550;45044076;11239424
5,26,30;1573150;889550;42725586;11239424
5,26,32;1573150;889550;44205600;11239424
5,27,2;1573150;889697;42535367;11239424
5,27,4;1573150;889550;42535330;11239424
5,27,6;1573150;889550;44943465;11239424
5,27,8;1573150;889550;42819934;11239424
5,27,10;1573150;889550;44505904;16683008
5,27,12;1573150;889550;42695408;11239424
5,27,14;1573150;889550;43335527;11239424
5,27,16;1573150;889550;44175486;11239424
5,27,18;1573150;889550;44055596;11239424
5,27,20;1573150;889550;42325234;11239424
5,27,22;1573150;889550;44065598;11239424
5,27,24;1573150;889550;42325468;11239424
5,27,26;1573150;889550;43435596;11239424
5,27,28;1573150;889550;44096083;11239424
5,27,30;1573150;889550;43386609;11239424
5,27,32;1573150;889550;43645599;11239424
5,28,2;1573150;889697;45285763;11239424
5,28,4;1573150;889550;43145658;11239424
5,28,6;1573150;889550;42247305;11239424
5,28,8;1573150;889550;44089057;9646080
5,28,10;1573150;889550;42275548;11239424
5,28,12;1573150;889550;43377789;11239424
5,28,14;1573150;889550;43175466;11239424
5,28,16;1573150;889550;42575489;11239424
5,28,18;1573150;889550;44133947;11239424
5,28,20;1573150;889550;42855498;11239424
5,28,22;1573150;889550;44035532;11239424
5,28,24;1573150;889550;46475910;11239424
5,28,26;1573150;889550;48346619;11239424
5,28,28;1573150;889550;44695772;11239424
5,28,30;1573150;889550;43975585;11239424
5,28,32;1573150;889550;42655417;11239424
5,29,2;1573150;889697;-130054074754239647;11239424
5,29,4;1573150;889550;45475454;11239424
5,29,6;1573150;889550;43025345;11239424
5,29,8;1573150;889550;44031472;11239424
5,29,10;1573150;889550;43445517;11239424
5,29,12;1573150;889550;42845274;11239424
5,29,14;1573150;889550;43145367;11239424
5,29,16;1573150;889550;43965529;11239424
5,29,18;1573150;889550;42965477;11239424
5,29,20;1573150;889550;44125747;11239424
5,29,22;1573150;889550;43245600;11239424
5,29,24;1573150;889550;43935582;11239424
5,29,26;1573150;889550;42985347;11239424
5,29,28;1573150;889550;45233120;11239424
5,29,30;1573150;889550;43505686;11239424
5,29,32;1573150;889550;43374512;11239424
9,16,2;1573150;945758;55107177;11239424
9,16,4;1573150;945851;52924751;11239424
9,16,6;1573150;945851;52116645;11239424
9,16,8;1573150;945851;53396612;11239424
9,16,10;1573150;945851;53942505;11239424
9,16,12;1573150;945851;53346758;11239424
9,16,14;1573150;945851;52466509;11239424
9,16,16;1573150;945851;52666689;15646720
9,16,18;1573150;945851;52846646;11239424
9,16,20;1573150;945851;55407069;11239424
9,16,22;1573150;945851;57349642;11239424
9,16,24;1573150;945851;55497135;11239424
9,16,26;1573150;945851;53416806;11239424
9,16,28;1573150;945851;54246836;11239424
9,16,30;1573150;945851;55236971;11239424
9,16,32;1573150;945851;54226958;11239424
9,17,2;1573150;938832;-130054077133700287;11239424
9,17,4;1573150;938934;57917232;11239424
9,17,6;1573150;938934;57047196;11239424
9,17,8;1573150;938934;55967067;11239424
9,17,10;1573150;938934;56837218;11239424
9,17,12;1573150;938934;56647305;11239424
9,17,14;1573150;938934;60697693;11239424
9,17,16;1573150;938934;56107131;11239424
9,17,18;1573150;938934;55487198;11239424
9,17,20;1573150;938934;55377164;11239424
9,17,22;1573150;938934;54946939;11239424
9,17,24;1573150;938934;58147383;11239424
9,17,26;1573150;938934;56147262;11239424
9,17,28;1573150;938934;55066936;11239424
9,17,30;1573150;938934;54597034;11239424
9,17,32;1573150;938934;56490848;11239424
9,18,2;1573150;934230;55387158;11239424
9,18,4;1573150;934277;57277187;11239424
9,18,6;1573150;934277;55768181;11239424
9,18,8;1573150;934277;55197051;11239424
9,18,10;1573150;934277;56637220;11239424
9,18,12;1573150;934277;58597490;11239424
9,18,14;1573150;934277;61937912;11239424
9,18,16;1573150;934277;64954100;11239424
9,18,18;1573150;934277;58637448;11239424
9,18,20;1573150;934277;56705059;11239424
9,18,22;1573150;934277;56047114;11239424
9,18,24;1573150;934277;57567408;11239424
9,18,26;1573150;934277;56223933;11239424
9,18,28;1573150;934277;56597311;11239424
9,18,30;1573150;934277;54766921;11239424
9,18,32;1573150;934277;56897240;11239424
9,19,2;1573150;931803;56917237;11239424
9,19,4;1573150;931924;57371897;11239424
9,19,6;1573150;931924;59340627;11239424
9,19,8;1573150;931924;56663803;11239424
9,19,10;1573150;931924;58518173;11239424
9,19,12;1573150;931924;57437355;11239424
9,19,14;1573150;931924;56487177;11239424
9,19,16;1573150;931924;57147359;11239424
9,19,18;1573150;931924;56507253;11239424
9,19,20;1573150;931924;56957379;11239424
9,19,22;1573150;931924;57647263;11239424
9,19,24;1573150;931924;57817212;11239424
9,19,26;1573150;931924;55737084;11239424
9,19,28;1573150;931924;56847197;11239424
9,19,30;1573150;931924;56587247;11239424
9,19,32;1573150;931924;56467110;11239424
9,20,2;1573150;933061;56784305;11239424
9,20,4;1573150;933193;58543641;11239424
9,20,6;1573150;933193;56797219;11239424
9,20,8;1573150;933193;57277253;11239424
9,20,10;1573150;933193;56827384;11239424
9,20,12;1573150;933193;57529352;11239424
9,20,14;1573150;933193;57417296;11239424
9,20,16;1573150;933193;57537272;11239424
9,20,18;1573150;933193;56577190;11239424
9,20,20;1573150;933193;57077422;11239424
9,20,22;1573150;933193;56777144;11239424
9,20,24;1573150;933193;58482609;11239424
9,20,26;1573150;933193;57677168;11239424
9,20,28;1573150;933193;57017290;11239424
9,20,30;1573150;933193;58337408;11239424
9,20,32;1573150;933193;57297274;11239424
9,21,2;1573150;936765;57265730;11239424
9,21,4;1573150;937033;58847179;11239424
9,21,6;1573150;937033;56927092;11239424
9,21,8;1573150;937033;59917666;11239424
9,21,10;1573150;937033;59140537;11239424
9,21,12;1573150;937033;58717388;11239424
9,21,14;1573150;937033;57687466;11239424
9,21,16;1573150;937033;57137196;11239424
9,21,18;1573150;937033;58107430;11239424
9,21,20;1573150;937033;58748140;11239424
9,21,22;1573150;937033;58407444;11239424
9,21,24;1573150;937033;59089103;11239424
9,21,26;1573150;937033;57747192;11239424
9,21,28;1573150;937033;59501916;11239424
9,21,30;1573150;937033;57227276;11239424
9,21,32;1573150;937033;57917245;11239424
9,22,2;1573150;940628;58740954;11239424
9,22,4;1573150;940711;58977498;11239424
9,22,6;1573150;940702;59815482;11239424
9,22,8;1573150;940702;59457490;11239424
9,22,10;1573150;940702;61287695;11239424
9,22,12;1573150;940702;62447933;11239424
9,22,14;1573150;940702;63448079;11239424
9,22,16;1573150;940702;62278090;11239424
9,22,18;1573150;940702;62147901;11239424
9,22,20;1573150;940702;62637937;11239424
9,22,22;1573150;940702;60667669;11239424
9,22,24;1573150;940702;63498024;11239424
9,22,26;1573150;940702;60687830;11239424
9,22,28;1573150;940702;58787453;11239424
9,22,30;1573150;940702;58157415;11239424
9,22,32;1573150;940702;59597411;11239424
9,23,2;1573150;938716;60947788;11239424
9,23,4;1573150;939614;60587592;11239424
9,23,6;1573150;939614;61687899;11239424
9,23,8;1573150;939614;63097603;11239424
9,23,10;1573150;939614;58877470;11239424
9,23,12;1573150;939614;61357654;11239424
9,23,14;1573150;939614;59977621;11239424
9,23,16;1573150;939614;61547942;11239424
9,23,18;1573150;939614;63668241;11239424
9,23,20;1573150;939614;66388586;11239424
9,23,22;1573150;939614;63124487;11239424
9,23,24;1573150;939614;63408068;11239424
9,23,26;1573150;939614;60091364;11239424
9,23,28;1573150;939614;61497467;11239424
9,23,30;1573150;939614;59317689;11239424
9,23,32;1573150;939614;61587953;11239424
9,24,2;1573150;938716;58468069;11239424
9,24,4;1573150;938555;60951878;11239424
9,24,6;1573150;938555;59537731;11239424
9,24,8;1573150;938555;62257772;11239424
9,24,10;1573150;938555;59887550;11239424
9,24,12;1573150;938555;60547860;11239424
9,24,14;1573150;938555;59437407;11239424
9,24,16;1573150;938555;65278399;11239424
9,24,18;1573150;938555;60577564;11239424
9,24,20;1573150;938555;61887894;11239424
9,24,22;1573150;938555;59407735;11239424
9,24,24;1573150;938555;60637704;11239424
9,24,26;1573150;938555;59367367;11239424
9,24,28;1573150;938555;60107625;11239424
9,24,30;1573150;938555;58897616;11239424
9,24,32;1573150;938555;60117579;11239424
9,25,2;1573150;938716;60659911;11239424
9,25,4;1573150;938555;60457822;11239424
9,25,6;1573150;938555;59917633;11239424
9,25,8;1573150;938555;60547802;11239424
9,25,10;1573150;938555;59497613;11239424
9,25,12;1573150;938555;61132377;11239424
9,25,14;1573150;938555;62328178;11239424
9,25,16;1573150;938555;61577765;11239424
9,25,18;1573150;938555;59727517;11239424
9,25,20;1573150;938555;61569199;11239424
9,25,22;1573150;938555;60647646;11239424
9,25,24;1573150;938555;63038099;11239424
9,25,26;1573150;938555;59717716;11239424
9,25,28;1573150;938555;60287734;11239424
9,25,30;1573150;938555;59917498;11239424
9,25,32;1573150;938555;62476311;11239424
9,26,2;1573150;938716;60848577;11239424
9,26,4;1573150;938555;60287655;11239424
9,26,6;1573150;938555;61077735;11239424
9,26,8;1573150;938555;60797869;11239424
9,26,10;1573150;938555;59737598;11239424
9,26,12;1573150;938555;61917869;11239424
9,26,14;1573150;938555;58917547;11239424
9,26,16;1573150;938555;61645522;11239424
9,26,18;1573150;938555;60227651;11239424
9,26,20;1573150;938555;61807719;11239424
9,26,22;1573150;938555;68568840;11239424
9,26,24;1573150;938555;67538706;11239424
9,26,26;1573150;938555;64578256;11239424
9,26,28;1573150;938555;-130054086752998250;11239424
9,26,30;1573150;938555;63338053;11239424
9,26,32;1573150;938555;62015405;11239424
9,27,2;1573150;938716;59517478;11239424
9,27,4;1573150;938555;60590630;11239424
9,27,6;1573150;938555;61027930;11239424
9,27,8;1573150;938555;60227605;11239424
9,27,10;1573150;938555;61037727;11239424
9,27,12;1573150;938555;60837728;11239424
9,27,14;1573150;938555;60507585;11239424
9,27,16;1573150;938555;62467828;11239424
9,27,18;1573150;938555;61231555;11239424
9,27,20;1573150;938555;60477573;11239424
9,27,22;1573150;938555;58837599;11239424
9,27,24;1573150;938555;61237661;11239424
9,27,26;1573150;938555;62247962;11239424
9,27,28;1573150;938555;61097786;11239424
9,27,30;1573150;938555;61767814;11239424
9,27,32;1573150;938555;61297789;11239424
9,28,2;1573150;938716;60567607;11239424
9,28,4;1573150;938555;62507975;11239424
9,28,6;1573150;938555;61514315;11239424
9,28,8;1573150;938555;60067740;11239424
9,28,10;1573150;938555;60227601;11239424
9,28,12;1573150;938555;62818111;11239424
9,28,14;1573150;938555;60307661;11239424
9,28,16;1573150;938555;62977865;11239424
9,28,18;1573150;938555;64878180;11239424
9,28,20;1573150;938555;65948487;11239424
9,28,22;1573150;938555;62998170;11239424
9,28,24;1573150;938555;65668280;11239424
9,28,26;1573150;938555;63038013;11239424
9,28,28;1573150;938555;66758555;11239424
9,28,30;1573150;938555;65392007;15646720
9,28,32;1573150;938555;62357928;11239424
9,29,2;1573150;938716;59693213;11239424
9,29,4;1573150;938555;61777858;11239424
9,29,6;1573150;938555;61487953;11239424
9,29,8;1573150;938555;61133896;11239424
9,29,10;1573150;938555;62528210;11239424
9,29,12;1573150;938555;60337781;11239424
9,29,14;1573150;938555;62487957;11239424
9,29,16;1573150;938555;63387976;11239424
9,29,18;1573150;938555;59317393;11239424
9,29,20;1573150;938555;62948079;11239424
9,29,22;1573150;938555;62658025;11239424
9,29,24;1573150;938555;62527791;11239424
9,29,26;1573150;938555;61397665;11239424
9,29,28;1573150;938555;62607888;11239424
9,29,30;1573150;938555;60097638;11239424
9,29,32;1573150;938555;60137592;11239424
