\relax 
\providecommand\BKM@entry[2]{}
\catcode`"\active
\ifx\hyper@anchor\@undefined
\global \let \oldcontentsline\contentsline
\gdef \contentsline#1#2#3#4{\oldcontentsline{#1}{#2}{#3}}
\global \let \oldnewlabel\newlabel
\gdef \newlabel#1#2{\newlabelxx{#1}#2}
\gdef \newlabelxx#1#2#3#4#5#6{\oldnewlabel{#1}{{#2}{#3}}}
\AtEndDocument{\let \contentsline\oldcontentsline
\let \newlabel\oldnewlabel}
\else
\global \let \hyper@last\relax 
\fi

\select@language{portuguese}
\@writefile{toc}{\select@language{portuguese}}
\@writefile{lof}{\select@language{portuguese}}
\@writefile{lot}{\select@language{portuguese}}
\BKM@entry{id=1,open,dest={73656374696F6E2A2E31}}{5C3331356E64696365}
\@writefile{toc}{\contentsline {chapter}{\IeC {\'I}ndice}{i}{section*.1}}
\BKM@entry{id=2,open,dest={636861707465722A2E32}}{4C697374612064652046696775726173}
\@writefile{toc}{\contentsline {chapter}{Lista de Figuras}{1}{chapter*.2}}
\BKM@entry{id=3,open,dest={636861707465722A2E33}}{4C6973746120646520546162656C6173}
\@writefile{toc}{\contentsline {chapter}{Lista de Tabelas}{3}{chapter*.3}}
\BKM@entry{id=4,open,dest={636861707465722A2E34}}{4C6973746120646520435C3336336469676F}
\@writefile{toc}{\contentsline {chapter}{Lista de C\IeC {\'o}digo}{5}{chapter*.4}}
\BKM@entry{id=5,open,dest={636861707465722E31}}{3120496E74726F64755C3334375C3334336F}
\BKM@entry{id=6,open,dest={73656374696F6E2E312E31}}{312E3120456E7175616472616D656E746F}
\BKM@entry{id=7,open,dest={73656374696F6E2E312E32}}{312E322045737472757475726120646F20646F63756D656E746F}
\@writefile{toc}{\contentsline {chapter}{\numberline {1}Introdu\IeC {\c c}\IeC {\~a}o}{7}{chapter.1}}
\@writefile{lof}{\addvspace {10\p@ }}
\@writefile{lot}{\addvspace {10\p@ }}
\@writefile{toc}{\contentsline {section}{\numberline {1.1}Enquadramento}{7}{section.1.1}}
\@writefile{toc}{\contentsline {section}{\numberline {1.2}Estrutura do documento}{7}{section.1.2}}
\BKM@entry{id=8,open,dest={636861707465722E32}}{32204F626A657469766F73}
\@writefile{toc}{\contentsline {chapter}{\numberline {2}Objetivos}{9}{chapter.2}}
\@writefile{lof}{\addvspace {10\p@ }}
\@writefile{lot}{\addvspace {10\p@ }}
\BKM@entry{id=9,open,dest={636861707465722A2E36}}{436F6E636C75735C3334336F}
\@writefile{toc}{\contentsline {chapter}{Conclus\IeC {\~a}o}{11}{chapter*.6}}
